Comparing the RC-test to the Fisher’s exact test • wext
…
Comparing tests for mutual exclusivity

One-sided Fisher’s exact test

Running the test produces results that generally agree with the prior visualization. The mutations to “a” and “b” seem to be the only significantly mutually exclusive set.

# column `gene_sets_print` shows the gene sets when printed
fish_test <- one_sided_fish(simple_dataset, sample_name, mutated_gene) %>% 
    mutate(gene_sets_print = purrr::map_chr(gene_sets, ~ paste0(.x[[1]], "-", .x[[2]]))) %>% 
    arrange(fish_pval, gene_sets_print, oddsratio)
fish_test
#> # A tibble: 28 x 4
#>    gene_sets fish_pval oddsratio gene_sets_print
#>    <list>        <dbl>     <dbl> <chr>          
#>  1 <chr [2]>   0.00932     0     a-b            
#>  2 <chr [2]>   0.308       0     a-g            
#>  3 <chr [2]>   0.308       0     e-b            
#>  4 <chr [2]>   0.343       0.362 c-b            
#>  5 <chr [2]>   0.343       0.362 d-b            
#>  6 <chr [2]>   0.571       0     a-h            
#>  7 <chr [2]>   0.571       0     f-b            
#>  8 <chr [2]>   0.604       0.527 c-e            
#>  9 <chr [2]>   0.604       0.527 c-g            
#> 10 <chr [2]>   0.604       0.527 d-e            
#> # … with 18 more rows
…
